[Tue Feb 26 00:47:47 2013] [error] [client 199.30.16.56] (13)Permission denied: file permissions deny server access: /home/renato/web/Rotas/public/robots.txt
[Tue Feb 26 10:26:29 2013] [error] [client 66.249.76.205] (13)Permission denied: file permissions deny server access: /home/renato/web/Rotas/public/robots.txt
[Tue Feb 26 22:32:45 2013] [error] [client 66.249.76.205] (13)Permission denied: file permissions deny server access: /home/renato/web/Rotas/public/robots.txt
