[Sat Jun 01 09:26:38 2013] [error] [client 157.56.93.214] (13)Permission denied: file permissions deny server access: /home/renato/web/Rotas_old/public/robots.txt
[Sat Jun 01 11:52:52 2013] [error] [client 66.249.72.65] (13)Permission denied: file permissions deny server access: /home/renato/web/Rotas_old/public/robots.txt
[Sat Jun 01 20:55:12 2013] [error] [client 66.249.72.65] (13)Permission denied: file permissions deny server access: /home/renato/web/Rotas_old/public/robots.txt
[Sat Jun 01 23:07:46 2013] [error] [client 157.55.32.76] (13)Permission denied: file permissions deny server access: /home/renato/web/Rotas_old/public/robots.txt
